…
Group the active-filtered dataframe by zip code, summarize by count of cells per, and arrange descending.

groupedByZip <- last_5_active %>% group_by(ZIP_CODE,RESULT) %>% summarize(count=n()) %>% arrange(desc(count))
groupedByZip

## Source: local data frame [177 x 3]
## Groups: ZIP_CODE [177]
## 
##    ZIP_CODE           RESULT count
##       <int>           <fctr> <int>
## 1     10457 Active Rat Signs  5563
## 2     10458 Active Rat Signs  5270
## 3     10456 Active Rat Signs  4098
## 4     10468 Active Rat Signs  3335
## 5     11221 Active Rat Signs  3102
## 6     10453 Active Rat Signs  2998
## 7     10452 Active Rat Signs  2364
## 8     10467 Active Rat Signs  2145
## 9     11237 Active Rat Signs  2111
## 10    11206 Active Rat Signs  1835
## # ... with 167 more rows
…
Find the top 20 zipcodes of sandy calls about rat sightings.

rat_calls <- calls %>% filter(Descriptor == 'Rat Sighting') %>% group_by(Incident.Zip, Descriptor) %>% summarize(count = n()) %>% arrange(desc(count))
rat_calls

## Source: local data frame [79 x 3]
## Groups: Incident.Zip [79]
## 
##    Incident.Zip   Descriptor count
##          <fctr>       <fctr> <int>
## 1         10025 Rat Sighting    14
## 2         10456 Rat Sighting     7
## 3         11207 Rat Sighting     7
## 4         11237 Rat Sighting     6
## 5         11221 Rat Sighting     5
## 6         10027 Rat Sighting     4
## 7         10453 Rat Sighting     4
## 8         10458 Rat Sighting     4
## 9         10467 Rat Sighting     4
## 10        11222 Rat Sighting     4
## # ... with 69 more rows
…
